[gd_resource type="Resource" load_steps=2 format=2]

[ext_resource path="res://Resources/Stats/Base_Stats.gd" type="Script" id=1]

[resource]
script = ExtResource( 1 )
class_job = "Goblin"
max_hp = 75
atk = 15
def = 10
spd = 20
