[gd_resource type="Resource" load_steps=2 format=2]

[ext_resource path="res://Resources/Stats/Base_Stats.gd" type="Script" id=1]

[resource]
script = ExtResource( 1 )
class_job = "Tiny Zombie"
max_hp = 15
atk = 2
def = 2
spd = 4
