[gd_resource type="Resource" load_steps=2 format=2]

[ext_resource path="res://Resources/Equipments/Base_Equipment.gd" type="Script" id=1]

[resource]
script = ExtResource( 1 )
name = "Leather Chestplate"
location = "chestplate"
class_job = "Knight"
hp = 2
atk = 0
def = 1
spd = 0
