[gd_resource type="Resource" load_steps=2 format=2]

[ext_resource path="res://Resources/Equipments/Base_Equipment.gd" type="Script" id=1]

[resource]
script = ExtResource( 1 )
name = "Mithril Knife"
location = "off_hand"
class_job = "Rogue"
hp = 0
atk = 6
def = 3
spd = 4
