[gd_resource type="Resource" load_steps=2 format=2]

[ext_resource path="res://Resources/Equipments/Base_Equipment.gd" type="Script" id=1]

[resource]
script = ExtResource( 1 )
name = "Mithril Blade"
location = "main_hand"
class_job = "Rogue"
hp = 0
atk = 11
def = 3
spd = 0
