[gd_resource type="Resource" load_steps=2 format=2]

[ext_resource path="res://Resources/Equipments/Base_Equipment.gd" type="Script" id=1]

[resource]
script = ExtResource( 1 )
name = "Wooden Spear"
location = "main_hand"
class_job = "Knight"
hp = 0
atk = 1
def = 0
spd = 0
